﻿{
		"vcalendar": [{
			"prodid": "-//1823 Call Centre, Efficiency Unit, HKSAR Government//Hong Kong Public Holidays//EN",
			"version": "2.0",
			"calscale": "GREGORIAN",
			"x-wr-timezone": "Asia/Hong_Kong",
			"x-wr-calname": "香港公眾假期",
			"x-wr-caldesc": "香港公眾假期",
			"vevent": [{
			"dtstart": [
				"20180101",
				{
					"value": "DATE"
				}
			],
			"dtend": [
				"20180102",
				{
					"value": "DATE"
				}
			],
			"transp": "TRANSPARENT",
			"uid": "20180101@1823.gov.hk",
			"summary": "一月一日"
			},
			{
			"dtstart": [
				"20180216",
				{
					"value": "DATE"
				}
			],
			"dtend": [
				"20180217",
				{
					"value": "DATE"
				}
			],
			"transp": "TRANSPARENT",
			"uid": "20180216@1823.gov.hk",
			"summary": "農曆年初一"
			},
			{
			"dtstart": [
				"20180217",
				{
					"value": "DATE"
				}
			],
			"dtend": [
				"20180218",
				{
					"value": "DATE"
				}
			],
			"transp": "TRANSPARENT",
			"uid": "20180217@1823.gov.hk",
			"summary": "農曆年初二"
			},
			{
			"dtstart": [
				"20180219",
				{
					"value": "DATE"
				}
			],
			"dtend": [
				"20180220",
				{
					"value": "DATE"
				}
			],
			"transp": "TRANSPARENT",
			"uid": "20180219@1823.gov.hk",
			"summary": "農曆年初四"
			},
			{
			"dtstart": [
				"20180330",
				{
					"value": "DATE"
				}
			],
			"dtend": [
				"20180331",
				{
					"value": "DATE"
				}
			],
			"transp": "TRANSPARENT",
			"uid": "20180330@1823.gov.hk",
			"summary": "耶穌受難節"
			},
			{
			"dtstart": [
				"20180331",
				{
					"value": "DATE"
				}
			],
			"dtend": [
				"20180401",
				{
					"value": "DATE"
				}
			],
			"transp": "TRANSPARENT",
			"uid": "20180331@1823.gov.hk",
			"summary": "耶穌受難節翌日"
			},
			{
			"dtstart": [
				"20180402",
				{
					"value": "DATE"
				}
			],
			"dtend": [
				"20180403",
				{
					"value": "DATE"
				}
			],
			"transp": "TRANSPARENT",
			"uid": "20180402@1823.gov.hk",
			"summary": "復活節星期一"
			},
			{
			"dtstart": [
				"20180405",
				{
					"value": "DATE"
				}
			],
			"dtend": [
				"20180406",
				{
					"value": "DATE"
				}
			],
			"transp": "TRANSPARENT",
			"uid": "20180405@1823.gov.hk",
			"summary": "清明節"
			},
			{
			"dtstart": [
				"20180501",
				{
					"value": "DATE"
				}
			],
			"dtend": [
				"20180502",
				{
					"value": "DATE"
				}
			],
			"transp": "TRANSPARENT",
			"uid": "20180501@1823.gov.hk",
			"summary": "勞動節"
			},
			{
			"dtstart": [
				"20180522",
				{
					"value": "DATE"
				}
			],
			"dtend": [
				"20180523",
				{
					"value": "DATE"
				}
			],
			"transp": "TRANSPARENT",
			"uid": "20180522@1823.gov.hk",
			"summary": "佛誕"
			},
			{
			"dtstart": [
				"20180618",
				{
					"value": "DATE"
				}
			],
			"dtend": [
				"20180619",
				{
					"value": "DATE"
				}
			],
			"transp": "TRANSPARENT",
			"uid": "20180618@1823.gov.hk",
			"summary": "端午節"
			},
			{
			"dtstart": [
				"20180702",
				{
					"value": "DATE"
				}
			],
			"dtend": [
				"20180703",
				{
					"value": "DATE"
				}
			],
			"transp": "TRANSPARENT",
			"uid": "20180702@1823.gov.hk",
			"summary": "香港特別行政區成立紀念日翌日"
			},
			{
			"dtstart": [
				"20180925",
				{
					"value": "DATE"
				}
			],
			"dtend": [
				"20180926",
				{
					"value": "DATE"
				}
			],
			"transp": "TRANSPARENT",
			"uid": "20180925@1823.gov.hk",
			"summary": "中秋節翌日"
			},
			{
			"dtstart": [
				"20181001",
				{
					"value": "DATE"
				}
			],
			"dtend": [
				"20181002",
				{
					"value": "DATE"
				}
			],
			"transp": "TRANSPARENT",
			"uid": "20181001@1823.gov.hk",
			"summary": "國慶日"
			},
			{
			"dtstart": [
				"20181017",
				{
					"value": "DATE"
				}
			],
			"dtend": [
				"20181018",
				{
					"value": "DATE"
				}
			],
			"transp": "TRANSPARENT",
			"uid": "20181017@1823.gov.hk",
			"summary": "重陽節"
			},
			{
			"dtstart": [
				"20181225",
				{
					"value": "DATE"
				}
			],
			"dtend": [
				"20181226",
				{
					"value": "DATE"
				}
			],
			"transp": "TRANSPARENT",
			"uid": "20181225@1823.gov.hk",
			"summary": "聖誕節"
			},
			{
			"dtstart": [
				"20181226",
				{
					"value": "DATE"
				}
			],
			"dtend": [
				"20181227",
				{
					"value": "DATE"
				}
			],
			"transp": "TRANSPARENT",
			"uid": "20181226@1823.gov.hk",
			"summary": "聖誕節後第一個周日"
			},
			{
			"dtstart": [
				"20190101",
				{
					"value": "DATE"
				}
			],
			"dtend": [
				"20190102",
				{
					"value": "DATE"
				}
			],
			"transp": "TRANSPARENT",
			"uid": "20190101@1823.gov.hk",
			"summary": "一月一日"
			},
			{
			"dtstart": [
				"20190205",
				{
					"value": "DATE"
				}
			],
			"dtend": [
				"20190206",
				{
					"value": "DATE"
				}
			],
			"transp": "TRANSPARENT",
			"uid": "20190205@1823.gov.hk",
			"summary": "農曆年初一"
			},
			{
			"dtstart": [
				"20190206",
				{
					"value": "DATE"
				}
			],
			"dtend": [
				"20190207",
				{
					"value": "DATE"
				}
			],
			"transp": "TRANSPARENT",
			"uid": "20190206@1823.gov.hk",
			"summary": "農曆年初二"
			},
			{
			"dtstart": [
				"20190207",
				{
					"value": "DATE"
				}
			],
			"dtend": [
				"20190208",
				{
					"value": "DATE"
				}
			],
			"transp": "TRANSPARENT",
			"uid": "20190207@1823.gov.hk",
			"summary": "農曆年初三"
			},
			{
			"dtstart": [
				"20190405",
				{
					"value": "DATE"
				}
			],
			"dtend": [
				"20190406",
				{
					"value": "DATE"
				}
			],
			"transp": "TRANSPARENT",
			"uid": "20190405@1823.gov.hk",
			"summary": "清明節"
			},
			{
			"dtstart": [
				"20190419",
				{
					"value": "DATE"
				}
			],
			"dtend": [
				"20190420",
				{
					"value": "DATE"
				}
			],
			"transp": "TRANSPARENT",
			"uid": "20190419@1823.gov.hk",
			"summary": "耶穌受難節"
			},
			{
			"dtstart": [
				"20190420",
				{
					"value": "DATE"
				}
			],
			"dtend": [
				"20190421",
				{
					"value": "DATE"
				}
			],
			"transp": "TRANSPARENT",
			"uid": "20190420@1823.gov.hk",
			"summary": "耶穌受難節翌日"
			},
			{
			"dtstart": [
				"20190422",
				{
					"value": "DATE"
				}
			],
			"dtend": [
				"20190423",
				{
					"value": "DATE"
				}
			],
			"transp": "TRANSPARENT",
			"uid": "20190422@1823.gov.hk",
			"summary": "復活節星期一"
			},
			{
			"dtstart": [
				"20190501",
				{
					"value": "DATE"
				}
			],
			"dtend": [
				"20190502",
				{
					"value": "DATE"
				}
			],
			"transp": "TRANSPARENT",
			"uid": "20190501@1823.gov.hk",
			"summary": "勞動節"
			},
			{
			"dtstart": [
				"20190513",
				{
					"value": "DATE"
				}
			],
			"dtend": [
				"20190514",
				{
					"value": "DATE"
				}
			],
			"transp": "TRANSPARENT",
			"uid": "20190513@1823.gov.hk",
			"summary": "佛誕翌日"
			},
			{
			"dtstart": [
				"20190607",
				{
					"value": "DATE"
				}
			],
			"dtend": [
				"20190608",
				{
					"value": "DATE"
				}
			],
			"transp": "TRANSPARENT",
			"uid": "20190607@1823.gov.hk",
			"summary": "端午節"
			},
			{
			"dtstart": [
				"20190701",
				{
					"value": "DATE"
				}
			],
			"dtend": [
				"20190702",
				{
					"value": "DATE"
				}
			],
			"transp": "TRANSPARENT",
			"uid": "20190701@1823.gov.hk",
			"summary": "香港特別行政區成立紀念日"
			},
			{
			"dtstart": [
				"20190914",
				{
					"value": "DATE"
				}
			],
			"dtend": [
				"20190915",
				{
					"value": "DATE"
				}
			],
			"transp": "TRANSPARENT",
			"uid": "20190914@1823.gov.hk",
			"summary": "中秋節翌日"
			},
			{
			"dtstart": [
				"20191001",
				{
					"value": "DATE"
				}
			],
			"dtend": [
				"20191002",
				{
					"value": "DATE"
				}
			],
			"transp": "TRANSPARENT",
			"uid": "20191001@1823.gov.hk",
			"summary": "國慶日"
			},
			{
			"dtstart": [
				"20191007",
				{
					"value": "DATE"
				}
			],
			"dtend": [
				"20191008",
				{
					"value": "DATE"
				}
			],
			"transp": "TRANSPARENT",
			"uid": "20191007@1823.gov.hk",
			"summary": "重陽節"
			},
			{
			"dtstart": [
				"20191225",
				{
					"value": "DATE"
				}
			],
			"dtend": [
				"20191226",
				{
					"value": "DATE"
				}
			],
			"transp": "TRANSPARENT",
			"uid": "20191225@1823.gov.hk",
			"summary": "聖誕節"
			},
			{
			"dtstart": [
				"20191226",
				{
					"value": "DATE"
				}
			],
			"dtend": [
				"20191227",
				{
					"value": "DATE"
				}
			],
			"transp": "TRANSPARENT",
			"uid": "20191226@1823.gov.hk",
			"summary": "聖誕節後第一個周日"
			},
			{
			"dtstart": [
				"20200101",
				{
					"value": "DATE"
				}
			],
			"dtend": [
				"20200102",
				{
					"value": "DATE"
				}
			],
			"transp": "TRANSPARENT",
			"uid": "20200101@1823.gov.hk",
			"summary": "一月一日"
			},
			{
			"dtstart": [
				"20200125",
				{
					"value": "DATE"
				}
			],
			"dtend": [
				"20200126",
				{
					"value": "DATE"
				}
			],
			"transp": "TRANSPARENT",
			"uid": "20200125@1823.gov.hk",
			"summary": "農曆年初一"
			},
			{
			"dtstart": [
				"20200127",
				{
					"value": "DATE"
				}
			],
			"dtend": [
				"20200128",
				{
					"value": "DATE"
				}
			],
			"transp": "TRANSPARENT",
			"uid": "20200127@1823.gov.hk",
			"summary": "農曆年初三"
			},
			{
			"dtstart": [
				"20200128",
				{
					"value": "DATE"
				}
			],
			"dtend": [
				"20200129",
				{
					"value": "DATE"
				}
			],
			"transp": "TRANSPARENT",
			"uid": "20200128@1823.gov.hk",
			"summary": "農曆年初四"
			},
			{
			"dtstart": [
				"20200404",
				{
					"value": "DATE"
				}
			],
			"dtend": [
				"20200405",
				{
					"value": "DATE"
				}
			],
			"transp": "TRANSPARENT",
			"uid": "20200404@1823.gov.hk",
			"summary": "清明節"
			},
			{
			"dtstart": [
				"20200410",
				{
					"value": "DATE"
				}
			],
			"dtend": [
				"20200411",
				{
					"value": "DATE"
				}
			],
			"transp": "TRANSPARENT",
			"uid": "20200410@1823.gov.hk",
			"summary": "耶穌受難節"
			},
			{
			"dtstart": [
				"20200411",
				{
					"value": "DATE"
				}
			],
			"dtend": [
				"20200412",
				{
					"value": "DATE"
				}
			],
			"transp": "TRANSPARENT",
			"uid": "20200411@1823.gov.hk",
			"summary": "耶穌受難節翌日"
			},
			{
			"dtstart": [
				"20200413",
				{
					"value": "DATE"
				}
			],
			"dtend": [
				"20200414",
				{
					"value": "DATE"
				}
			],
			"transp": "TRANSPARENT",
			"uid": "20200413@1823.gov.hk",
			"summary": "復活節星期一"
			},
			{
			"dtstart": [
				"20200430",
				{
					"value": "DATE"
				}
			],
			"dtend": [
				"20200501",
				{
					"value": "DATE"
				}
			],
			"transp": "TRANSPARENT",
			"uid": "20200430@1823.gov.hk",
			"summary": "佛誕"
			},
			{
			"dtstart": [
				"20200501",
				{
					"value": "DATE"
				}
			],
			"dtend": [
				"20200502",
				{
					"value": "DATE"
				}
			],
			"transp": "TRANSPARENT",
			"uid": "20200501@1823.gov.hk",
			"summary": "勞動節"
			},
			{
			"dtstart": [
				"20200625",
				{
					"value": "DATE"
				}
			],
			"dtend": [
				"20200626",
				{
					"value": "DATE"
				}
			],
			"transp": "TRANSPARENT",
			"uid": "20200625@1823.gov.hk",
			"summary": "端午節"
			},
			{
			"dtstart": [
				"20200701",
				{
					"value": "DATE"
				}
			],
			"dtend": [
				"20200702",
				{
					"value": "DATE"
				}
			],
			"transp": "TRANSPARENT",
			"uid": "20200701@1823.gov.hk",
			"summary": "香港特別行政區成立紀念日"
			},
			{
			"dtstart": [
				"20201001",
				{
					"value": "DATE"
				}
			],
			"dtend": [
				"20201002",
				{
					"value": "DATE"
				}
			],
			"transp": "TRANSPARENT",
			"uid": "20201001@1823.gov.hk",
			"summary": "國慶日"
			},
			{
			"dtstart": [
				"20201002",
				{
					"value": "DATE"
				}
			],
			"dtend": [
				"20201003",
				{
					"value": "DATE"
				}
			],
			"transp": "TRANSPARENT",
			"uid": "20201002@1823.gov.hk",
			"summary": "中秋節翌日"
			},
			{
			"dtstart": [
				"20201026",
				{
					"value": "DATE"
				}
			],
			"dtend": [
				"20201027",
				{
					"value": "DATE"
				}
			],
			"transp": "TRANSPARENT",
			"uid": "20201026@1823.gov.hk",
			"summary": "重陽節翌日"
			},
			{
			"dtstart": [
				"20201225",
				{
					"value": "DATE"
				}
			],
			"dtend": [
				"20201226",
				{
					"value": "DATE"
				}
			],
			"transp": "TRANSPARENT",
			"uid": "20201225@1823.gov.hk",
			"summary": "聖誕節"
			},
			{
			"dtstart": [
				"20201226",
				{
					"value": "DATE"
				}
			],
			"dtend": [
				"20201227",
				{
					"value": "DATE"
				}
			],
			"transp": "TRANSPARENT",
			"uid": "20201226@1823.gov.hk",
			"summary": "聖誕節後第一個周日"
			},
			{
			"dtstart": [
				"20210101",
				{
					"value": "DATE"
				}
			],
			"dtend": [
				"20210102",
				{
					"value": "DATE"
				}
			],
			"transp": "TRANSPARENT",
			"uid": "20210101@1823.gov.hk",
			"summary": "一月一日"
			},
			{
			"dtstart": [
				"20210212",
				{
					"value": "DATE"
				}
			],
			"dtend": [
				"20210213",
				{
					"value": "DATE"
				}
			],
			"transp": "TRANSPARENT",
			"uid": "20210212@1823.gov.hk",
			"summary": "農曆年初一"
			},
			{
			"dtstart": [
				"20210213",
				{
					"value": "DATE"
				}
			],
			"dtend": [
				"20210214",
				{
					"value": "DATE"
				}
			],
			"transp": "TRANSPARENT",
			"uid": "20210213@1823.gov.hk",
			"summary": "農曆年初二"
			},
			{
			"dtstart": [
				"20210215",
				{
					"value": "DATE"
				}
			],
			"dtend": [
				"20210216",
				{
					"value": "DATE"
				}
			],
			"transp": "TRANSPARENT",
			"uid": "20210215@1823.gov.hk",
			"summary": "農曆年初四"
			},
			{
			"dtstart": [
				"20210402",
				{
					"value": "DATE"
				}
			],
			"dtend": [
				"20210403",
				{
					"value": "DATE"
				}
			],
			"transp": "TRANSPARENT",
			"uid": "20210402@1823.gov.hk",
			"summary": "耶穌受難節"
			},
			{
			"dtstart": [
				"20210403",
				{
					"value": "DATE"
				}
			],
			"dtend": [
				"20210404",
				{
					"value": "DATE"
				}
			],
			"transp": "TRANSPARENT",
			"uid": "20210403@1823.gov.hk",
			"summary": "耶穌受難節翌日"
			},
			{
			"dtstart": [
				"20210405",
				{
					"value": "DATE"
				}
			],
			"dtend": [
				"20210406",
				{
					"value": "DATE"
				}
			],
			"transp": "TRANSPARENT",
			"uid": "20210405@1823.gov.hk",
			"summary": "清明節翌日"
			},
			{
			"dtstart": [
				"20210406",
				{
					"value": "DATE"
				}
			],
			"dtend": [
				"20210407",
				{
					"value": "DATE"
				}
			],
			"transp": "TRANSPARENT",
			"uid": "20210406@1823.gov.hk",
			"summary": "復活節星期一翌日"
			},
			{
			"dtstart": [
				"20210501",
				{
					"value": "DATE"
				}
			],
			"dtend": [
				"20210502",
				{
					"value": "DATE"
				}
			],
			"transp": "TRANSPARENT",
			"uid": "20210501@1823.gov.hk",
			"summary": "勞動節"
			},
			{
			"dtstart": [
				"20210519",
				{
					"value": "DATE"
				}
			],
			"dtend": [
				"20210520",
				{
					"value": "DATE"
				}
			],
			"transp": "TRANSPARENT",
			"uid": "20210519@1823.gov.hk",
			"summary": "佛誕"
			},
			{
			"dtstart": [
				"20210614",
				{
					"value": "DATE"
				}
			],
			"dtend": [
				"20210615",
				{
					"value": "DATE"
				}
			],
			"transp": "TRANSPARENT",
			"uid": "20210614@1823.gov.hk",
			"summary": "端午節"
			},
			{
			"dtstart": [
				"20210701",
				{
					"value": "DATE"
				}
			],
			"dtend": [
				"20210702",
				{
					"value": "DATE"
				}
			],
			"transp": "TRANSPARENT",
			"uid": "20210701@1823.gov.hk",
			"summary": "香港特別行政區成立紀念日"
			},
			{
			"dtstart": [
				"20210922",
				{
					"value": "DATE"
				}
			],
			"dtend": [
				"20210923",
				{
					"value": "DATE"
				}
			],
			"transp": "TRANSPARENT",
			"uid": "20210922@1823.gov.hk",
			"summary": "中秋節翌日"
			},
			{
			"dtstart": [
				"20211001",
				{
					"value": "DATE"
				}
			],
			"dtend": [
				"20211002",
				{
					"value": "DATE"
				}
			],
			"transp": "TRANSPARENT",
			"uid": "20211001@1823.gov.hk",
			"summary": "國慶日"
			},
			{
			"dtstart": [
				"20211014",
				{
					"value": "DATE"
				}
			],
			"dtend": [
				"20211015",
				{
					"value": "DATE"
				}
			],
			"transp": "TRANSPARENT",
			"uid": "20211014@1823.gov.hk",
			"summary": "重陽節"
			},
			{
			"dtstart": [
				"20211225",
				{
					"value": "DATE"
				}
			],
			"dtend": [
				"20211226",
				{
					"value": "DATE"
				}
			],
			"transp": "TRANSPARENT",
			"uid": "20211225@1823.gov.hk",
			"summary": "聖誕節"
			},
			{
			"dtstart": [
				"20211227",
				{
					"value": "DATE"
				}
			],
			"dtend": [
				"20211228",
				{
					"value": "DATE"
				}
			],
			"transp": "TRANSPARENT",
			"uid": "20211227@1823.gov.hk",
			"summary": "聖誕節後第一個周日"
			},
			{
			"dtstart": [
				"20220101",
				{
					"value": "DATE"
				}
			],
			"dtend": [
				"20220102",
				{
					"value": "DATE"
				}
			],
			"transp": "TRANSPARENT",
			"uid": "20220101@1823.gov.hk",
			"summary": "一月一日"
			},
			{
			"dtstart": [
				"20220201",
				{
					"value": "DATE"
				}
			],
			"dtend": [
				"20220202",
				{
					"value": "DATE"
				}
			],
			"transp": "TRANSPARENT",
			"uid": "20220201@1823.gov.hk",
			"summary": "農曆年初一"
			},
			{
			"dtstart": [
				"20220202",
				{
					"value": "DATE"
				}
			],
			"dtend": [
				"20220203",
				{
					"value": "DATE"
				}
			],
			"transp": "TRANSPARENT",
			"uid": "20220202@1823.gov.hk",
			"summary": "農曆年初二"
			},
			{
			"dtstart": [
				"20220203",
				{
					"value": "DATE"
				}
			],
			"dtend": [
				"20220204",
				{
					"value": "DATE"
				}
			],
			"transp": "TRANSPARENT",
			"uid": "20220203@1823.gov.hk",
			"summary": "農曆年初三"
			},
			{
			"dtstart": [
				"20220405",
				{
					"value": "DATE"
				}
			],
			"dtend": [
				"20220406",
				{
					"value": "DATE"
				}
			],
			"transp": "TRANSPARENT",
			"uid": "20220405@1823.gov.hk",
			"summary": "清明節"
			},
			{
			"dtstart": [
				"20220415",
				{
					"value": "DATE"
				}
			],
			"dtend": [
				"20220416",
				{
					"value": "DATE"
				}
			],
			"transp": "TRANSPARENT",
			"uid": "20220415@1823.gov.hk",
			"summary": "耶穌受難節"
			},
			{
			"dtstart": [
				"20220416",
				{
					"value": "DATE"
				}
			],
			"dtend": [
				"20220417",
				{
					"value": "DATE"
				}
			],
			"transp": "TRANSPARENT",
			"uid": "20220416@1823.gov.hk",
			"summary": "耶穌受難節翌日"
			},
			{
			"dtstart": [
				"20220418",
				{
					"value": "DATE"
				}
			],
			"dtend": [
				"20220419",
				{
					"value": "DATE"
				}
			],
			"transp": "TRANSPARENT",
			"uid": "20220418@1823.gov.hk",
			"summary": "復活節星期一"
			},
			{
			"dtstart": [
				"20220502",
				{
					"value": "DATE"
				}
			],
			"dtend": [
				"20220503",
				{
					"value": "DATE"
				}
			],
			"transp": "TRANSPARENT",
			"uid": "20220502@1823.gov.hk",
			"summary": "勞動節翌日"
			},
			{
			"dtstart": [
				"20220509",
				{
					"value": "DATE"
				}
			],
			"dtend": [
				"20220510",
				{
					"value": "DATE"
				}
			],
			"transp": "TRANSPARENT",
			"uid": "20220509@1823.gov.hk",
			"summary": "佛誕翌日"
			},
			{
			"dtstart": [
				"20220603",
				{
					"value": "DATE"
				}
			],
			"dtend": [
				"20220604",
				{
					"value": "DATE"
				}
			],
			"transp": "TRANSPARENT",
			"uid": "20220603@1823.gov.hk",
			"summary": "端午節"
			},
			{
			"dtstart": [
				"20220701",
				{
					"value": "DATE"
				}
			],
			"dtend": [
				"20220702",
				{
					"value": "DATE"
				}
			],
			"transp": "TRANSPARENT",
			"uid": "20220701@1823.gov.hk",
			"summary": "香港特別行政區成立紀念日"
			},
			{
			"dtstart": [
				"20220912",
				{
					"value": "DATE"
				}
			],
			"dtend": [
				"20220913",
				{
					"value": "DATE"
				}
			],
			"transp": "TRANSPARENT",
			"uid": "20220912@1823.gov.hk",
			"summary": "中秋節後第二日"
			},
			{
			"dtstart": [
				"20221001",
				{
					"value": "DATE"
				}
			],
			"dtend": [
				"20221002",
				{
					"value": "DATE"
				}
			],
			"transp": "TRANSPARENT",
			"uid": "20221001@1823.gov.hk",
			"summary": "國慶日"
			},
			{
			"dtstart": [
				"20221004",
				{
					"value": "DATE"
				}
			],
			"dtend": [
				"20221005",
				{
					"value": "DATE"
				}
			],
			"transp": "TRANSPARENT",
			"uid": "20221004@1823.gov.hk",
			"summary": "重陽節"
			},
			{
			"dtstart": [
				"20221226",
				{
					"value": "DATE"
				}
			],
			"dtend": [
				"20221227",
				{
					"value": "DATE"
				}
			],
			"transp": "TRANSPARENT",
			"uid": "20221226@1823.gov.hk",
			"summary": "聖誕節後第一個周日"
			},
			{
			"dtstart": [
				"20221227",
				{
					"value": "DATE"
				}
			],
			"dtend": [
				"20221228",
				{
					"value": "DATE"
				}
			],
			"transp": "TRANSPARENT",
			"uid": "20221227@1823.gov.hk",
			"summary": "聖誕節後第二個周日"
			},
			{
			"dtstart": [
				"20230102",
				{
					"value": "DATE"
				}
			],
			"dtend": [
				"20230103",
				{
					"value": "DATE"
				}
			],
			"transp": "TRANSPARENT",
			"uid": "20230102@1823.gov.hk",
			"summary": "一月一日翌日"
			},
			{
			"dtstart": [
				"20230123",
				{
					"value": "DATE"
				}
			],
			"dtend": [
				"20230124",
				{
					"value": "DATE"
				}
			],
			"transp": "TRANSPARENT",
			"uid": "20230123@1823.gov.hk",
			"summary": "農曆年初二"
			},
			{
			"dtstart": [
				"20230124",
				{
					"value": "DATE"
				}
			],
			"dtend": [
				"20230125",
				{
					"value": "DATE"
				}
			],
			"transp": "TRANSPARENT",
			"uid": "20230124@1823.gov.hk",
			"summary": "農曆年初三"
			},
			{
			"dtstart": [
				"20230125",
				{
					"value": "DATE"
				}
			],
			"dtend": [
				"20230126",
				{
					"value": "DATE"
				}
			],
			"transp": "TRANSPARENT",
			"uid": "20230125@1823.gov.hk",
			"summary": "農曆年初四"
			},
			{
			"dtstart": [
				"20230405",
				{
					"value": "DATE"
				}
			],
			"dtend": [
				"20230406",
				{
					"value": "DATE"
				}
			],
			"transp": "TRANSPARENT",
			"uid": "20230405@1823.gov.hk",
			"summary": "清明節"
			},
			{
			"dtstart": [
				"20230407",
				{
					"value": "DATE"
				}
			],
			"dtend": [
				"20230408",
				{
					"value": "DATE"
				}
			],
			"transp": "TRANSPARENT",
			"uid": "20230407@1823.gov.hk",
			"summary": "耶穌受難節"
			},
			{
			"dtstart": [
				"20230408",
				{
					"value": "DATE"
				}
			],
			"dtend": [
				"20230409",
				{
					"value": "DATE"
				}
			],
			"transp": "TRANSPARENT",
			"uid": "20230408@1823.gov.hk",
			"summary": "耶穌受難節翌日"
			},
			{
			"dtstart": [
				"20230410",
				{
					"value": "DATE"
				}
			],
			"dtend": [
				"20230411",
				{
					"value": "DATE"
				}
			],
			"transp": "TRANSPARENT",
			"uid": "20230410@1823.gov.hk",
			"summary": "復活節星期一"
			},
			{
			"dtstart": [
				"20230501",
				{
					"value": "DATE"
				}
			],
			"dtend": [
				"20230502",
				{
					"value": "DATE"
				}
			],
			"transp": "TRANSPARENT",
			"uid": "20230501@1823.gov.hk",
			"summary": "勞動節"
			},
			{
			"dtstart": [
				"20230526",
				{
					"value": "DATE"
				}
			],
			"dtend": [
				"20230527",
				{
					"value": "DATE"
				}
			],
			"transp": "TRANSPARENT",
			"uid": "20230526@1823.gov.hk",
			"summary": "佛誕"
			},
			{
			"dtstart": [
				"20230622",
				{
					"value": "DATE"
				}
			],
			"dtend": [
				"20230623",
				{
					"value": "DATE"
				}
			],
			"transp": "TRANSPARENT",
			"uid": "20230622@1823.gov.hk",
			"summary": "端午節"
			},
			{
			"dtstart": [
				"20230701",
				{
					"value": "DATE"
				}
			],
			"dtend": [
				"20230702",
				{
					"value": "DATE"
				}
			],
			"transp": "TRANSPARENT",
			"uid": "20230701@1823.gov.hk",
			"summary": "香港特別行政區成立紀念日"
			},
			{
			"dtstart": [
				"20230930",
				{
					"value": "DATE"
				}
			],
			"dtend": [
				"20231001",
				{
					"value": "DATE"
				}
			],
			"transp": "TRANSPARENT",
			"uid": "20230930@1823.gov.hk",
			"summary": "中秋節翌日"
			},
			{
			"dtstart": [
				"20231002",
				{
					"value": "DATE"
				}
			],
			"dtend": [
				"20231003",
				{
					"value": "DATE"
				}
			],
			"transp": "TRANSPARENT",
			"uid": "20231002@1823.gov.hk",
			"summary": "國慶日翌日"
			},
			{
			"dtstart": [
				"20231023",
				{
					"value": "DATE"
				}
			],
			"dtend": [
				"20231024",
				{
					"value": "DATE"
				}
			],
			"transp": "TRANSPARENT",
			"uid": "20231023@1823.gov.hk",
			"summary": "重陽節"
			},
			{
			"dtstart": [
				"20231225",
				{
					"value": "DATE"
				}
			],
			"dtend": [
				"20231226",
				{
					"value": "DATE"
				}
			],
			"transp": "TRANSPARENT",
			"uid": "20231225@1823.gov.hk",
			"summary": "聖誕節"
			},
			{
			"dtstart": [
				"20231226",
				{
					"value": "DATE"
				}
			],
			"dtend": [
				"20231227",
				{
					"value": "DATE"
				}
			],
			"transp": "TRANSPARENT",
			"uid": "20231226@1823.gov.hk",
			"summary": "聖誕節後第一個周日"
			}
		]
	}]
}
